/usr/bin/ruby2.5 -I/var/lib/gems/2.5.0/gems/rspec-core-3.8.0/lib:/var/lib/gems/2.5.0/gems/rspec-support-3.8.0/lib /var/lib/gems/2.5.0/gems/rspec-core-3.8.0/exe/rspec --pattern spec/\*\*\{,/\*/\*\*\}/\*_spec.rb
............2019-02-01 11:15:39 -0800 
2019-02-01 12:15:39 -0800..

Finished in 1.38 seconds (files took 3.01 seconds to load)
14 examples, 0 failures

